<?xml version="1.0" encoding="utf-8"?>
<!-- Generator: Adobe Illustrator 22.0.0, SVG Export Plug-In . SVG Version: 6.00 Build 0)  -->
<svg fill="#3766ff" version="1.1" id="Layer_1" xmlns="http://www.w3.org/2000/svg" xmlns:xlink="http://www.w3.org/1999/xlink" x="0px" y="0px"
	 viewBox="0 0 100 125" style="enable-background:new 0 0 100 125;" xml:space="preserve">
<path d="M50,54c21,0,38,17,38,38h4c0-23.2-18.8-42-42-42S8,68.8,8,92h4C12,71,29,54,50,54z"/>
<path d="M50,8C37.3,8,27,18.3,27,31s10.3,23,23,23s23-10.3,23-23S62.7,8,50,8z M50,50c-10.5,0-19-8.5-19-19s8.5-19,19-19
	s19,8.5,19,19S60.5,50,50,50z"/>
</svg>
